\relax 
\providecommand\hyper@newdestlabel[2]{}
\providecommand\HyperFirstAtBeginDocument{\AtBeginDocument}
\HyperFirstAtBeginDocument{\ifx\hyper@anchor\@undefined
\global\let\oldcontentsline\contentsline
\gdef\contentsline#1#2#3#4{\oldcontentsline{#1}{#2}{#3}}
\global\let\oldnewlabel\newlabel
\gdef\newlabel#1#2{\newlabelxx{#1}#2}
\gdef\newlabelxx#1#2#3#4#5#6{\oldnewlabel{#1}{{#2}{#3}}}
\AtEndDocument{\ifx\hyper@anchor\@undefined
\let\contentsline\oldcontentsline
\let\newlabel\oldnewlabel
\fi}
\fi}
\global\let\hyper@last\relax 
\gdef\HyperFirstAtBeginDocument#1{#1}
\providecommand\HyField@AuxAddToFields[1]{}
\providecommand\HyField@AuxAddToCoFields[2]{}
\@writefile{toc}{\contentsline {section}{\numberline {1}Some Section}{1}{section.1}}
\@writefile{toc}{\contentsline {subsection}{\numberline {1.1}Some Subsection}{1}{subsection.1.1}}
\@writefile{toc}{\contentsline {subsubsection}{\numberline {1.1.1}Some Subsubsection}{1}{subsubsection.1.1.1}}
\@writefile{toc}{\contentsline {paragraph}{Some Paragraph}{1}{section*.4}}
\@writefile{toc}{\contentsline {subparagraph}{Some Subparagraph}{1}{section*.5}}
\@writefile{toc}{\contentsline {section}{\numberline {2}An Equation}{2}{section.2}}
\@writefile{lomycapequ}{\contentsline {mycapequ}{\numberline {1}{\ignorespaces An example equation.\relax }}{2}{mycapequ.caption.6}}
\providecommand*\caption@xref[2]{\@setref\relax\@undefined{#1}}
\newlabel{equ:example}{{1}{2}{An example equation.\relax }{mycapequ.caption.6}{}}
\@writefile{toc}{\contentsline {section}{\numberline {3}Making a List}{2}{section.3}}
\citation{LatexBook}
\@writefile{toc}{\contentsline {section}{\numberline {4}Listings and References}{3}{section.4}}
\@writefile{lol}{\contentsline {lstlisting}{\numberline {1}Caption for an example listing.}{3}{lstlisting.1}}
\bibstyle{ieeetran}
\bibdata{bibliography.bib}
\bibcite{LatexBook}{1}
\@writefile{lof}{\contentsline {figure}{\numberline {1}{\ignorespaces How to get the bibtex entry for our bibliography from Mendeley.\relax }}{4}{figure.caption.7}}
\newlabel{fig:mendeley}{{1}{4}{How to get the bibtex entry for our bibliography from Mendeley.\relax }{figure.caption.7}{}}
\@writefile{toc}{\contentsline {section}{References}{4}{section*.8}}
