\contentsline {section}{\numberline {1}Some Section}{1}{section.1}
\contentsline {subsection}{\numberline {1.1}Some Subsection}{1}{subsection.1.1}
\contentsline {subsubsection}{\numberline {1.1.1}Some Subsubsection}{1}{subsubsection.1.1.1}
\contentsline {paragraph}{Some Paragraph}{1}{section*.4}
\contentsline {subparagraph}{Some Subparagraph}{1}{section*.5}
\contentsline {section}{\numberline {2}An Equation}{2}{section.2}
\contentsline {section}{\numberline {3}Making a List}{2}{section.3}
\contentsline {section}{\numberline {4}Listings and References}{3}{section.4}
\contentsline {section}{References}{4}{section*.8}
