# Fdb version 3
["bibtex main"] 1551200621 "main.aux" "main.bbl" "main" 1551201198
  "bibliography.bib" 1551192975 246 95975f64910b7a2ddf6687c511591d6e ""
  "c:/texlive/2017/texmf-dist/bibtex/bst/base/ieeetr.bst" 1505210138 18361 1a00e58565e7f19bf2b3e1bfb82254ae ""
  "main.aux" 1551201198 2214 060b118a5aacfec4f2f3566294cd3c71 ""
  (generated)
  "main.blg"
  "main.bbl"
["pdflatex"] 1551201197 "c:/Users/Filipa/Desktop/Advanced/WS LaTeX Advanced/main.tex" "c:/Users/Filipa/Desktop/Advanced/WS LaTeX Advanced/main.pdf" "main" 1551201198
  "c:/Users/Filipa/Desktop/Advanced/WS LaTeX Advanced/main.aux" 1551201198 2214 060b118a5aacfec4f2f3566294cd3c71 ""
  "c:/Users/Filipa/Desktop/Advanced/WS LaTeX Advanced/main.tex" 1551200618 4215 338280af270921b8a67d8f647339cffa ""
  "c:/texlive/2017/texmf-dist/fonts/map/fontname/texfonts.map" 1505212250 3287 e6b82fe08f5336d4d5ebc73fb1152e87 ""
  "c:/texlive/2017/texmf-dist/fonts/tfm/public/amsfonts/cmextra/cmex7.tfm" 1505209482 1004 54797486969f23fa377b128694d548df ""
  "c:/texlive/2017/texmf-dist/fonts/tfm/public/amsfonts/cmextra/cmex8.tfm" 1505209482 988 bdf658c3bfc2d96d3c8b02cfc1c94c20 ""
  "c:/texlive/2017/texmf-dist/fonts/tfm/public/cm/cmbx12.tfm" 1505210671 1324 c910af8c371558dc20f2d7822f66fe64 ""
  "c:/texlive/2017/texmf-dist/fonts/tfm/public/cm/cmex10.tfm" 1505210671 992 662f679a0b3d2d53c1b94050fdaa3f50 ""
  "c:/texlive/2017/texmf-dist/fonts/tfm/public/cm/cmmi12.tfm" 1505210671 1524 4414a8315f39513458b80dfc63bff03a ""
  "c:/texlive/2017/texmf-dist/fonts/tfm/public/cm/cmmi6.tfm" 1505210671 1512 f21f83efb36853c0b70002322c1ab3ad ""
  "c:/texlive/2017/texmf-dist/fonts/tfm/public/cm/cmmi8.tfm" 1505210671 1520 eccf95517727cb11801f4f1aee3a21b4 ""
  "c:/texlive/2017/texmf-dist/fonts/tfm/public/cm/cmr12.tfm" 1505210671 1288 655e228510b4c2a1abe905c368440826 ""
  "c:/texlive/2017/texmf-dist/fonts/tfm/public/cm/cmr17.tfm" 1505210671 1292 296a67155bdbfc32aa9c636f21e91433 ""
  "c:/texlive/2017/texmf-dist/fonts/tfm/public/cm/cmr6.tfm" 1505210671 1300 b62933e007d01cfd073f79b963c01526 ""
  "c:/texlive/2017/texmf-dist/fonts/tfm/public/cm/cmr8.tfm" 1505210671 1292 21c1c5bfeaebccffdb478fd231a0997d ""
  "c:/texlive/2017/texmf-dist/fonts/tfm/public/cm/cmsy10.tfm" 1505210671 1124 6c73e740cf17375f03eec0ee63599741 ""
  "c:/texlive/2017/texmf-dist/fonts/tfm/public/cm/cmsy6.tfm" 1505210671 1116 933a60c408fc0a863a92debe84b2d294 ""
  "c:/texlive/2017/texmf-dist/fonts/tfm/public/cm/cmsy8.tfm" 1505210671 1120 8b7d695260f3cff42e636090a8002094 ""
  "c:/texlive/2017/texmf-dist/fonts/tfm/public/cm/cmti12.tfm" 1505210671 1484 ed72f8f5cf654cda15ecc8e32bfcbee5 ""
  "c:/texlive/2017/texmf-dist/fonts/type1/public/amsfonts/cm/cmbx12.pfb" 1505209482 32080 340ef9bf63678554ee606688e7b5339d ""
  "c:/texlive/2017/texmf-dist/fonts/type1/public/amsfonts/cm/cmmi12.pfb" 1505209483 36741 0ee9e374ec3e30da87cdfb0ea3575226 ""
  "c:/texlive/2017/texmf-dist/fonts/type1/public/amsfonts/cm/cmr12.pfb" 1505209483 32722 d7379af29a190c3f453aba36302ff5a9 ""
  "c:/texlive/2017/texmf-dist/fonts/type1/public/amsfonts/cm/cmsy10.pfb" 1505209483 32569 5e5ddc8df908dea60932f3c484a54c0d ""
  "c:/texlive/2017/texmf-dist/fonts/type1/public/amsfonts/cm/cmti12.pfb" 1505209483 36118 fad905eba93cff5bce1e185fe980a177 ""
  "c:/texlive/2017/texmf-dist/tex/context/base/mkii/supp-pdf.mkii" 1505214282 71627 94eb9990bed73c364d7f53f960cc8c5b ""
  "c:/texlive/2017/texmf-dist/tex/generic/ifxetex/ifxetex.sty" 1505212929 1458 43ab4710dc82f3edeabecd0d099626b2 ""
  "c:/texlive/2017/texmf-dist/tex/generic/oberdiek/gettitlestring.sty" 1505214592 8237 3b62ef1f7e2c23a328c814b3893bc11f ""
  "c:/texlive/2017/texmf-dist/tex/generic/oberdiek/hobsub-generic.sty" 1505214592 185082 1fb09d7d24834377f95006300bc91fd2 ""
  "c:/texlive/2017/texmf-dist/tex/generic/oberdiek/hobsub-hyperref.sty" 1505214592 70864 bcd5b216757bd619ae692a151d90085d ""
  "c:/texlive/2017/texmf-dist/tex/generic/pgf/basiclayer/pgfcore.code.tex" 1505214881 1006 b103be0bfc8c1682ff1fa9760697a329 ""
  "c:/texlive/2017/texmf-dist/tex/generic/pgf/basiclayer/pgfcorearrows.code.tex" 1505214881 43226 167a99346bfe2676e3efcdde2d81fe45 ""
  "c:/texlive/2017/texmf-dist/tex/generic/pgf/basiclayer/pgfcoreexternal.code.tex" 1505214881 19302 4f089dc590e71f7331e6d5b5ea85273b ""
  "c:/texlive/2017/texmf-dist/tex/generic/pgf/basiclayer/pgfcoregraphicstate.code.tex" 1505214881 6068 edae1e768a7d8d8f0f00e953d2b0153e ""
  "c:/texlive/2017/texmf-dist/tex/generic/pgf/basiclayer/pgfcoreimage.code.tex" 1505214881 7041 a891ad72049e17c4e366c40ca37b0ccb ""
  "c:/texlive/2017/texmf-dist/tex/generic/pgf/basiclayer/pgfcorelayers.code.tex" 1505214881 4625 40c07e9f6f2f7c674704b3f2055560ce ""
  "c:/texlive/2017/texmf-dist/tex/generic/pgf/basiclayer/pgfcoreobjects.code.tex" 1505214881 2631 7eefa6cdbefd8d4e2bad7262cf1094cd ""
  "c:/texlive/2017/texmf-dist/tex/generic/pgf/basiclayer/pgfcorepathconstruct.code.tex" 1505214881 43477 81143b33d9ebafdeead07ede13372427 ""
  "c:/texlive/2017/texmf-dist/tex/generic/pgf/basiclayer/pgfcorepathprocessing.code.tex" 1505214881 17436 8d99d4113be311daf23deff86991ee7d ""
  "c:/texlive/2017/texmf-dist/tex/generic/pgf/basiclayer/pgfcorepathusage.code.tex" 1505214881 20772 c57e34db4aa7b1da013169d04b743eac ""
  "c:/texlive/2017/texmf-dist/tex/generic/pgf/basiclayer/pgfcorepatterns.code.tex" 1505214881 9641 711f0edc22c180a5caf168b6e8970057 ""
  "c:/texlive/2017/texmf-dist/tex/generic/pgf/basiclayer/pgfcorepoints.code.tex" 1505214881 34516 658a71478d21df554bce9d9cd436203a ""
  "c:/texlive/2017/texmf-dist/tex/generic/pgf/basiclayer/pgfcorequick.code.tex" 1505214881 3052 e5672c657232fd63b0a9853b0746297c ""
  "c:/texlive/2017/texmf-dist/tex/generic/pgf/basiclayer/pgfcorescopes.code.tex" 1505214881 16669 4ec6e40088fc6de6334b443fe2dc59f0 ""
  "c:/texlive/2017/texmf-dist/tex/generic/pgf/basiclayer/pgfcoreshade.code.tex" 1505214881 21541 4cd19f8ff7dd74d5aa7d803a6397af84 ""
  "c:/texlive/2017/texmf-dist/tex/generic/pgf/basiclayer/pgfcoretransformations.code.tex" 1505214881 19998 d77fef95c7369827753d17fd11be19c4 ""
  "c:/texlive/2017/texmf-dist/tex/generic/pgf/basiclayer/pgfcoretransparency.code.tex" 1505214881 8943 2e2495b057f8f0035b5568394d489963 ""
  "c:/texlive/2017/texmf-dist/tex/generic/pgf/frontendlayer/tikz/libraries/tikzlibrarypositioning.code.tex" 1505214881 4034 0a8cd33cf30d262ec971380666acb2d0 ""
  "c:/texlive/2017/texmf-dist/tex/generic/pgf/frontendlayer/tikz/libraries/tikzlibrarytopaths.code.tex" 1505214881 11599 d694704a88e2f9007c996d3a6a4d629c ""
  "c:/texlive/2017/texmf-dist/tex/generic/pgf/frontendlayer/tikz/tikz.code.tex" 1505214881 176652 1c2926908e2b356d454795c35385d580 ""
  "c:/texlive/2017/texmf-dist/tex/generic/pgf/libraries/pgflibraryplothandlers.code.tex" 1505214882 32969 dbcfd5a7de6a0f7255c333ef60287d59 ""
  "c:/texlive/2017/texmf-dist/tex/generic/pgf/math/pgfmath.code.tex" 1505214882 454 9e9e7c99f4da4f41698be21eaef4938e ""
  "c:/texlive/2017/texmf-dist/tex/generic/pgf/math/pgfmathcalc.code.tex" 1505214882 13416 940ea6971d7a65dc440d3479939c66ae ""
  "c:/texlive/2017/texmf-dist/tex/generic/pgf/math/pgfmathfloat.code.tex" 1505214882 94097 62ac62cda46eb715560dc27f9ed6e8b1 ""
  "c:/texlive/2017/texmf-dist/tex/generic/pgf/math/pgfmathfunctions.base.code.tex" 1505214882 9375 5adc70f722abd29fc250d59e0694b548 ""
  "c:/texlive/2017/texmf-dist/tex/generic/pgf/math/pgfmathfunctions.basic.code.tex" 1505214882 22069 7c21c42b15718ce922f36235be360490 ""
  "c:/texlive/2017/texmf-dist/tex/generic/pgf/math/pgfmathfunctions.code.tex" 1505214882 8210 a7be5b52ef3d2c087b7dc3d52898b67e ""
  "c:/texlive/2017/texmf-dist/tex/generic/pgf/math/pgfmathfunctions.comparison.code.tex" 1505214882 3534 c7f28fbac13616513e513efe93b8569b ""
  "c:/texlive/2017/texmf-dist/tex/generic/pgf/math/pgfmathfunctions.integerarithmetics.code.tex" 1505214882 3167 7c9394e79aac27db96a92f9b2792b858 ""
  "c:/texlive/2017/texmf-dist/tex/generic/pgf/math/pgfmathfunctions.misc.code.tex" 1505214882 9289 261407875b9dbb0194691c3eb893610f ""
  "c:/texlive/2017/texmf-dist/tex/generic/pgf/math/pgfmathfunctions.random.code.tex" 1505214882 7078 946ddf4a7e57219b6afdbad98eb6731b ""
  "c:/texlive/2017/texmf-dist/tex/generic/pgf/math/pgfmathfunctions.round.code.tex" 1505214882 2688 139c6abc86761a6190c2f4bef5d752be ""
  "c:/texlive/2017/texmf-dist/tex/generic/pgf/math/pgfmathfunctions.trigonometric.code.tex" 1505214882 92284 dcf023dbaa84e6c50e11c2f79fe8cfa6 ""
  "c:/texlive/2017/texmf-dist/tex/generic/pgf/math/pgfmathparser.code.tex" 1505214882 35430 046e15fbb65e74d8f0e7945f99741fdb ""
  "c:/texlive/2017/texmf-dist/tex/generic/pgf/math/pgfmathutil.code.tex" 1505214882 7099 f44d505bae6c7c2b933cdd63441db4b9 ""
  "c:/texlive/2017/texmf-dist/tex/generic/pgf/modules/pgfmodulematrix.code.tex" 1505214882 20934 2328bd2e04520e1ab077ac4ee13b8935 ""
  "c:/texlive/2017/texmf-dist/tex/generic/pgf/modules/pgfmoduleplot.code.tex" 1505214882 16203 83cbe1220e389eeee283a6168f9a567b ""
  "c:/texlive/2017/texmf-dist/tex/generic/pgf/modules/pgfmoduleshapes.code.tex" 1505214882 42906 d54376d96df1a2ae2d33fb722236d8e9 ""
  "c:/texlive/2017/texmf-dist/tex/generic/pgf/systemlayer/pgf.cfg" 1505214882 978 15af626ebd3d4d790aac19170dac04f2 ""
  "c:/texlive/2017/texmf-dist/tex/generic/pgf/systemlayer/pgfsys-common-pdf.def" 1505214882 5437 d91f93ed61ecdc57e119849b2d784a0b ""
  "c:/texlive/2017/texmf-dist/tex/generic/pgf/systemlayer/pgfsys-pdftex.def" 1505214882 13507 809d848d9262638e1b1705a68a73c566 ""
  "c:/texlive/2017/texmf-dist/tex/generic/pgf/systemlayer/pgfsys.code.tex" 1505214882 35113 2ccc50c1c9573e4bac9230d030f9c67c ""
  "c:/texlive/2017/texmf-dist/tex/generic/pgf/systemlayer/pgfsysprotocol.code.tex" 1505214882 1983 b5994ebbcee17f1ba3d29bb1bd696fcf ""
  "c:/texlive/2017/texmf-dist/tex/generic/pgf/systemlayer/pgfsyssoftpath.code.tex" 1505214882 7881 d459d6057e13d10ce7a227ae44b7295e ""
  "c:/texlive/2017/texmf-dist/tex/generic/pgf/utilities/pgffor.code.tex" 1505214882 22211 d696ef78c12269178882d218b2cf191d ""
  "c:/texlive/2017/texmf-dist/tex/generic/pgf/utilities/pgfkeys.code.tex" 1505214882 36194 e194ef4e0b396b531a3891feb4b1cc22 ""
  "c:/texlive/2017/texmf-dist/tex/generic/pgf/utilities/pgfkeysfiltered.code.tex" 1505214882 33377 af391d6ad1bfcbe2278e191f48e43ba8 ""
  "c:/texlive/2017/texmf-dist/tex/generic/pgf/utilities/pgfrcs.code.tex" 1505214882 2536 a3b0529d815a2759ba157b56610a6377 ""
  "c:/texlive/2017/texmf-dist/tex/generic/pgf/utilities/pgfutil-common-lists.tex" 1505214882 6833 114eda2cf1d348e0e7e477a1a4dc1941 ""
  "c:/texlive/2017/texmf-dist/tex/generic/pgf/utilities/pgfutil-common.tex" 1505214882 16501 ab0135765e27b6b8dae047831fe84818 ""
  "c:/texlive/2017/texmf-dist/tex/generic/pgf/utilities/pgfutil-latex.def" 1505214882 5544 294baac9629ba59f675b1f2027ad7136 ""
  "c:/texlive/2017/texmf-dist/tex/generic/xkeyval/xkeyval.tex" 1505217439 19231 26434a5656c684f5ffb1f26f98006baa ""
  "c:/texlive/2017/texmf-dist/tex/generic/xkeyval/xkvutils.tex" 1505217439 7677 6f5ce7c1124cad7ec57d05b2562bd8fe ""
  "c:/texlive/2017/texmf-dist/tex/latex/amsmath/amsbsy.sty" 1505209491 2210 5c54ab129b848a5071554186d0168766 ""
  "c:/texlive/2017/texmf-dist/tex/latex/amsmath/amsgen.sty" 1505209491 4160 c115536cf8d4ff25aa8c1c9bc4ecb79a ""
  "c:/texlive/2017/texmf-dist/tex/latex/amsmath/amsmath.sty" 1505209491 84352 897a476d96a0681047a5b0f91178a3d2 ""
  "c:/texlive/2017/texmf-dist/tex/latex/amsmath/amsopn.sty" 1505209491 4115 318a66090112f3aa3f415aeb6fe8540f ""
  "c:/texlive/2017/texmf-dist/tex/latex/amsmath/amstext.sty" 1505209491 2431 fe3078ec12fc30287f568596f8e0b948 ""
  "c:/texlive/2017/texmf-dist/tex/latex/base/article.cls" 1505213349 19821 310da678527a7dfe2a02c88af38079b7 ""
  "c:/texlive/2017/texmf-dist/tex/latex/base/ifthen.sty" 1505213349 5159 a08c9bbd48fc492f15b22e458bef961f ""
  "c:/texlive/2017/texmf-dist/tex/latex/base/inputenc.sty" 1505213349 4732 d63eda807ac82cca2ca8488efd31a966 ""
  "c:/texlive/2017/texmf-dist/tex/latex/base/omscmr.fd" 1505213349 2256 80ce1168fb4ce6a85583a9cf8972c013 ""
  "c:/texlive/2017/texmf-dist/tex/latex/base/omsenc.dfu" 1505213349 2004 ac51aeac484f08c01026120d62677eca ""
  "c:/texlive/2017/texmf-dist/tex/latex/base/ot1enc.dfu" 1505213349 3181 1cb3e9ad01f4a01127b2ffd821bfeec7 ""
  "c:/texlive/2017/texmf-dist/tex/latex/base/size12.clo" 1505213349 8303 1d67e16498f00f63da792fab169302fc ""
  "c:/texlive/2017/texmf-dist/tex/latex/base/t1enc.dfu" 1505213349 11255 9d97362866549d3d3c994b5f28d1b9b5 ""
  "c:/texlive/2017/texmf-dist/tex/latex/base/utf8.def" 1505213349 7784 325a2a09984cb5c4ff230f9867145ad3 ""
  "c:/texlive/2017/texmf-dist/tex/latex/caption/caption.sty" 1505210431 66233 8b81cfab95a1f8fc2f0f6c89415b087a ""
  "c:/texlive/2017/texmf-dist/tex/latex/caption/caption3.sty" 1505210431 64866 1ea74c5f2d1685881497f021b8f186b2 ""
  "c:/texlive/2017/texmf-dist/tex/latex/caption/newfloat.sty" 1505210431 24165 13229d12403224f3a2eb04f7a3ded724 ""
  "c:/texlive/2017/texmf-dist/tex/latex/eso-pic/eso-pic.sty" 1505211856 11954 3abdeb9fbc956bcd048295dd83dd5e7c ""
  "c:/texlive/2017/texmf-dist/tex/latex/fancyhdr/fancyhdr.sty" 1505211979 10663 d7fcc0dc4f35e8998b8cfeef8407d37d ""
  "c:/texlive/2017/texmf-dist/tex/latex/graphics-cfg/color.cfg" 1505212600 1213 620bba36b25224fa9b7e1ccb4ecb76fd ""
  "c:/texlive/2017/texmf-dist/tex/latex/graphics-cfg/graphics.cfg" 1505212600 1224 978390e9c2234eab29404bc21b268d1e ""
  "c:/texlive/2017/texmf-dist/tex/latex/graphics-def/pdftex.def" 1505212601 16511 5d26b5e9dfb345f4c794a3d58bda444e ""
  "c:/texlive/2017/texmf-dist/tex/latex/graphics/graphics.sty" 1505212598 15275 7d676729b1bedd3e7f3c6717affb366c ""
  "c:/texlive/2017/texmf-dist/tex/latex/graphics/graphicx.sty" 1505212598 9066 649f2ccf62888e3d8c3e57256b70b8e1 ""
  "c:/texlive/2017/texmf-dist/tex/latex/graphics/keyval.sty" 1505212598 2594 d18d5e19aa8239cf867fa670c556d2e9 ""
  "c:/texlive/2017/texmf-dist/tex/latex/graphics/lscape.sty" 1505212598 1757 94e21888eaf2391b7bbc441045c70c12 ""
  "c:/texlive/2017/texmf-dist/tex/latex/graphics/trig.sty" 1505212598 3980 0a268fbfda01e381fa95821ab13b6aee ""
  "c:/texlive/2017/texmf-dist/tex/latex/hyperref/hpdftex.def" 1505212805 51983 9a4f683a2a7b213874a28bc4008b84d9 ""
  "c:/texlive/2017/texmf-dist/tex/latex/hyperref/hyperref.sty" 1505212805 233808 b63d91422c362e723c6e8b1a2fffcba5 ""
  "c:/texlive/2017/texmf-dist/tex/latex/hyperref/nameref.sty" 1505212805 12949 81e4e808884a8f0e276b69410e234656 ""
  "c:/texlive/2017/texmf-dist/tex/latex/hyperref/pd1enc.def" 1505212805 14098 7631f11156e5f9cd76010dbd230aa268 ""
  "c:/texlive/2017/texmf-dist/tex/latex/latexconfig/epstopdf-sys.cfg" 1505213440 678 4792914a8f45be57bb98413425e4c7af ""
  "c:/texlive/2017/texmf-dist/tex/latex/latexconfig/hyperref.cfg" 1505213440 235 6031e5765137be07eed51a510b2b8fb7 ""
  "c:/texlive/2017/texmf-dist/tex/latex/listings/listings.cfg" 1505213610 1827 d72ad54409ca5c1068a1939c63441bd2 ""
  "c:/texlive/2017/texmf-dist/tex/latex/listings/listings.sty" 1505213610 80336 ff90c926c3d7bfdaa3d80ca57123b0bb ""
  "c:/texlive/2017/texmf-dist/tex/latex/listings/lstlang1.sty" 1505213610 93445 48e5be20ba2d0a2ca5c4ce7e292a4bbc ""
  "c:/texlive/2017/texmf-dist/tex/latex/listings/lstmisc.sty" 1505213610 77028 c3eb00afb55a32bc13ca8da7f5234377 ""
  "c:/texlive/2017/texmf-dist/tex/latex/ms/everyshi.sty" 1505214289 3878 6aa7c08ff2621006e0603349e40a30a8 ""
  "c:/texlive/2017/texmf-dist/tex/latex/oberdiek/auxhook.sty" 1505214592 3834 4363110eb0ef1eb2b71c8fcbcdb6c357 ""
  "c:/texlive/2017/texmf-dist/tex/latex/oberdiek/epstopdf-base.sty" 1505214592 12095 5337833c991d80788a43d3ce26bd1c46 ""
  "c:/texlive/2017/texmf-dist/tex/latex/oberdiek/grfext.sty" 1505214592 7075 2fe3d848bba95f139de11ded085e74aa ""
  "c:/texlive/2017/texmf-dist/tex/latex/oberdiek/kvoptions.sty" 1505214592 22417 1d9df1eb66848aa31b18a593099cf45c ""
  "c:/texlive/2017/texmf-dist/tex/latex/oberdiek/pdflscape.sty" 1505214592 6688 c84de1eae6cda82865a6d3d09e339ec9 ""
  "c:/texlive/2017/texmf-dist/tex/latex/oberdiek/rerunfilecheck.sty" 1505214592 9581 023642318cef9f4677efe364de1e2a27 ""
  "c:/texlive/2017/texmf-dist/tex/latex/pdfpages/pdfpages.sty" 1505214829 52888 cf8568b58a8baf522cf018c718666387 ""
  "c:/texlive/2017/texmf-dist/tex/latex/pdfpages/pppdftex.def" 1505214829 6364 b04001c6bfdb3b151b185e58577293ed ""
  "c:/texlive/2017/texmf-dist/tex/latex/pgf/basiclayer/pgf.sty" 1505214882 1197 8a80cdde14696a9198f1793a55dcf332 ""
  "c:/texlive/2017/texmf-dist/tex/latex/pgf/basiclayer/pgfcore.sty" 1505214882 410 5bf12ea7330e5f12c445332a4fe9a263 ""
  "c:/texlive/2017/texmf-dist/tex/latex/pgf/compatibility/pgfcomp-version-0-65.sty" 1505214882 21115 facf03b7dbe5ea2f5f1dce1ac84b5d05 ""
  "c:/texlive/2017/texmf-dist/tex/latex/pgf/compatibility/pgfcomp-version-1-18.sty" 1505214882 1091 d9163d29def82ee90370c8a63667742c ""
  "c:/texlive/2017/texmf-dist/tex/latex/pgf/frontendlayer/tikz.sty" 1505214882 339 592cf35cba3d400082b8a9a5d0199d70 ""
  "c:/texlive/2017/texmf-dist/tex/latex/pgf/math/pgfmath.sty" 1505214882 306 0796eafca5e159e6ec2167a6d22d81b1 ""
  "c:/texlive/2017/texmf-dist/tex/latex/pgf/systemlayer/pgfsys.sty" 1505214882 443 0b2e781830192df35c0fd357cf13e26e ""
  "c:/texlive/2017/texmf-dist/tex/latex/pgf/utilities/pgffor.sty" 1505214882 348 8927fde343487e003b01a4c2ca34073b ""
  "c:/texlive/2017/texmf-dist/tex/latex/pgf/utilities/pgfkeys.sty" 1505214882 274 4cad6e665cc93ac2ac979039a94fa1e1 ""
  "c:/texlive/2017/texmf-dist/tex/latex/pgf/utilities/pgfrcs.sty" 1505214882 325 2bcd023400636339210573e2b3ee298b ""
  "c:/texlive/2017/texmf-dist/tex/latex/todonotes/todonotes.sty" 1505216802 17384 7b57db249380913af74b205c3d410376 ""
  "c:/texlive/2017/texmf-dist/tex/latex/tools/calc.sty" 1505216810 10214 d03d065f799d54f6b7e9b175f8d84279 ""
  "c:/texlive/2017/texmf-dist/tex/latex/tools/indentfirst.sty" 1505216810 1617 820bc46185ca5aeeda2ecc6c21866b18 ""
  "c:/texlive/2017/texmf-dist/tex/latex/url/url.sty" 1505217136 12796 8edb7d69a20b857904dd0ea757c14ec9 ""
  "c:/texlive/2017/texmf-dist/tex/latex/xcolor/xcolor.sty" 1505217349 55589 34128738f682d033422ca125f82e5d62 ""
  "c:/texlive/2017/texmf-dist/tex/latex/xkeyval/xkeyval.sty" 1505217439 4962 9c1069474ff71dbc47d5006555e352d3 ""
  "c:/texlive/2017/texmf-dist/web2c/texmf.cnf" 1505213265 32646 eadc4ca26cdbe7105ac7c593aa8c4f72 ""
  "c:/texlive/2017/texmf-var/fonts/map/pdftex/updmap/pdftex.map" 1505217640 2434056 fc499473443451e6603442d4fa5ad5a9 ""
  "c:/texlive/2017/texmf-var/web2c/pdftex/pdflatex.fmt" 1505217705 4126646 2ddb952952f9d03d76774797b56c6688 ""
  "c:/texlive/2017/texmf.cnf" 1505217601 673 4ae7b2f49cee444c5343a45b5d0f169c ""
  "image.png" 1551192751 48115 e2f4d19cafa009886e48b178a3795fb5 ""
  "listing.tex" 1551201196 798 e39e7bc47f31c0358ed5885a083f0bed ""
  "main.aux" 1551201198 2214 060b118a5aacfec4f2f3566294cd3c71 ""
  "main.bbl" 1551200622 105 1d9b81b6e2e8cf3b9ca93417e4c0a4d8 "bibtex main"
  "main.lof" 1551201198 147 bb6158e60e7ccdf6e60230d2acfa7e2a ""
  "main.lomycapequ" 1551201198 108 c6245fbf430e78005c77aa6c29983e10 ""
  "main.out" 1551201198 518 10d15438bb2e9a8fc4a5e83c50f27740 ""
  "main.tex" 1551200618 4215 338280af270921b8a67d8f647339cffa ""
  "main.toc" 1551201198 623 d8b5cc13842e19816e95957dfaa40b91 ""
  "section2.tex" 1551190907 521 831cb2cc57768bb2e455421f83d4f352 ""
  "section3.tex" 1551200618 689 5b3254c55affb4d2de233349b9f28ecf ""
  (generated)
  "main.lof"
  "c:/Users/Filipa/Desktop/Advanced/WS LaTeX Advanced/main.log"
  "main.log"
  "main.lomycapequ"
  "c:/Users/Filipa/Desktop/WS Latex/main.log"
  "main.aux"
  "main.toc"
  "c:/Users/Filipa/Desktop/Advanced/WS LaTeX Advanced/main.pdf"
  "main.out"
  "main.pdf"
  "c:/Users/Filipa/Desktop/WS Latex/main.pdf"
